Expansión de la CASEN sobre el CENSO a nivel de manzana
…
3 URBANO

urb <- readxl::read_xlsx("censo_casen_urb_2017.xlsx")
urb$urb_rur <- "1"
urb

## # A tibble: 5,165 x 16
##    zona      código.x Freq.x personas comuna promedio_i año   ingresos_expandid~
##    <chr>     <chr>     <dbl>    <dbl> <chr>       <dbl> <chr>              <dbl>
##  1 11010110~ 01101      1255   191468 Iquiq~    375677. 2017        71930106513.
##  2 11010110~ 01101       621   191468 Iquiq~    375677. 2017        71930106513.
##  3 11010210~ 01101       493   191468 Iquiq~    375677. 2017        71930106513.
##  4 11010210~ 01101        33   191468 Iquiq~    375677. 2017        71930106513.
##  5 11010210~ 01101      1224   191468 Iquiq~    375677. 2017        71930106513.
##  6 11010210~ 01101       968   191468 Iquiq~    375677. 2017        71930106513.
##  7 11010210~ 01101      1927   191468 Iquiq~    375677. 2017        71930106513.
##  8 11010310~ 01101      1179   191468 Iquiq~    375677. 2017        71930106513.
##  9 11010310~ 01101      1582   191468 Iquiq~    375677. 2017        71930106513.
## 10 11010310~ 01101      2111   191468 Iquiq~    375677. 2017        71930106513.
## # ... with 5,155 more rows, and 8 more variables: Freq.y <dbl>, p <dbl>,
## #   código.y <chr>, multipob <dbl>, est_ing <dbl>, ing_medio_zona <dbl>,
## #   identificador <chr>, urb_rur <chr>
…
